{
  "images" : [
    {
      "idiom" : "universal",
      "scale" : "1x",
      "filename" : "gestion de obra.png"
    },
    {
      "idiom" : "universal",
      "scale" : "2x",
      "filename" : "obra de gestion@2x.png"
    },
    {
      "idiom" : "universal",
      "scale" : "3x",
      "filename" : "Gestion de obra@3x.png"
    }
  ],
  "info" : {
    "version" : 1,
    "author" : "xcode"
  }
}